…
# current verison
packageVersion("publicwww")
```

    ## [1] '0.1.0'

### Sites using the WordPress theme “Twenty Sixteen”:

``` r
source_code_search('"/wp-content/themes/twentysixteen/"')
```

    ## No encoding supplied: defaulting to UTF-8.

    ## # A tibble: 2,847 x 2
    ##    site                          rank
    ##    <chr>                        <int>
    ##  1 cyberciti.biz                 4738
    ##  2 creativecommons.org           7217
    ##  3 1337x.io                      8173
    ##  4 bestgore.com                  8480
    ##  5 mooma.sh                     23268
    ##  6 educationteams.com           30091
    ##  7 stih.su                      33197
    ##  8 getitfree.us                 37142
    ##  9 pagesuite-professional.co.uk 39135
    ## 10 tagaloglang.com              40384
    ## # ... with 2,837 more rows

### Sites running the coinhive JS miner

``` r
source_code_search('"coin-hive.com/lib/coinhive.min.js"')
```

    ## No encoding supplied: defaulting to UTF-8.

    ## # A tibble: 501 x 2
    ##    site                 rank
    ##    <chr>               <int>
    ##  1 seriesdanko.to       9955
    ##  2 porn68jav.com       16931
    ##  3 wifi4games.com      21058
    ##  4 xyya.net            41457
    ##  5 dazabo.com          46003
    ##  6 series-cravings.tv  53648
    ##  7 rroij.com           76319
    ##  8 katzddl.ws          95124
    ##  9 pornfromcz.com     102247
    ## 10 uinsgd.ac.id       102894
    ## # ... with 491 more rows
…
